Session 7 Genetic and Environmental Associations | Reproducible Research for Conservation — Mérida, Mexico
…
FIGURE 7.3: Individual and cumulative importance of SNPs associated with top 2 environmental variables

Which SNP has the greatest importance? For plotting purposes, only the first two top environmental variables are plotted. So the plots on the left are variants and turnover functions associated with Bio4, and the plots on the right are associated Bio3.

You can confirm this by looking at the range of your top environemntal variables and comparing it to the x-axis in the plots above using this code below:

Ewifl %>% dplyr::select(BIO4,BIO3)

## # A tibble: 21 × 2
##     BIO4  BIO3
##    <dbl> <dbl>
##  1  7888    43
##  2  7792    44
##  3  6365    50
##  4  6468    47
##  5  3298    54
##  6  7032    44
##  7  8676    36
##  8  8762    36
##  9  9542    30
## 10  4173    50
## # … with 11 more rows
…
