Session 2 Introduction to the tidyverse | Reproducible Research for Conservation — Mérida, Mexico
…
## Rows: 60 Columns: 5

## -- Column specification -------------------------------
## Delimiter: ","
## chr (2): Site, Taxa
## dbl (3): ...1, NDVI, Richness

## 
## i Use `spec()` to retrieve the full column specification for this data.
## i Specify the column types or set `show_col_types = FALSE` to quiet this message.

data.all

## # A tibble: 60 x 5
##     ...1 Site     NDVI Taxa  Richness
##    <dbl> <chr>   <dbl> <chr>    <dbl>
##  1     1 Site.1   0.66 Birds       14
##  2     2 Site.2   0.4  Birds       10
##  3     3 Site.3   0.36 Birds        9
##  4     4 Site.4   0.82 Birds       16
##  5     5 Site.5   0.55 Birds       12
##  6     6 Site.6   0.29 Birds        7
##  7     7 Site.7   0.51 Birds       11
##  8     8 Site.8   0.74 Birds       16
##  9     9 Site.9   1    Birds       25
## 10    10 Site.10  0.76 Birds       16
## # ... with 50 more rows
…
## # A tibble: 1 x 12
##   r.squared adj.r.squared sigma statistic  p.value
##       <dbl>         <dbl> <dbl>     <dbl>    <dbl>
## 1     0.819         0.812  1.70      127. 6.75e-12
## # ... with 7 more variables: df <dbl>, logLik <dbl>,
## #   AIC <dbl>, BIC <dbl>, deviance <dbl>,
## #   df.residual <int>, nobs <int>

broom::augment() returns fitted values

birds.augment<-model.birds%>%augment()
birds.augment

## # A tibble: 30 x 8
##    Richness  NDVI .fitted  .resid   .hat .sigma .cooksd
##       <dbl> <dbl>   <dbl>   <dbl>  <dbl>  <dbl>   <dbl>
##  1       14  0.66   14.1  -0.0743 0.0334   1.73 3.41e-5
##  2       10  0.4     8.91  1.09   0.111    1.72 2.90e-2
##  3        9  0.36    8.11  0.890  0.136    1.72 2.49e-2
##  4       16  0.82   17.3  -1.26   0.0583   1.71 1.79e-2
##  5       12  0.55   11.9   0.113  0.0484   1.73 1.17e-4
##  6        7  0.29    6.72  0.282  0.188    1.73 3.90e-3
##  7       11  0.51   11.1  -0.0920 0.0603   1.73 9.98e-5
##  8       16  0.74   15.7   0.335  0.0389   1.73 8.18e-4
##  9       25  1      20.8   4.17   0.152    1.50 6.35e-1
## 10       16  0.76   16.1  -0.0625 0.0425   1.73 3.12e-5
## # ... with 20 more rows, and 1 more variable:
## #   .std.resid <dbl>
…
The grouping variable is left out of the nested data frame. All other data is now in a separate data frame, nested with the whole data frame.

You can inspect what lies behind the “data” column by using unnest() to display the original data.

data.original.birds<-data.taxa%>%ungroup()%>%slice(n=1)%>%unnest(data) #slice(n=1) means extract the first row of the data.taxa data frame.

data.original.birds

## # A tibble: 30 x 5
##    Taxa   ...1 Site     NDVI Richness
##    <chr> <dbl> <chr>   <dbl>    <dbl>
##  1 Birds     1 Site.1   0.66       14
##  2 Birds     2 Site.2   0.4        10
##  3 Birds     3 Site.3   0.36        9
##  4 Birds     4 Site.4   0.82       16
##  5 Birds     5 Site.5   0.55       12
##  6 Birds     6 Site.6   0.29        7
##  7 Birds     7 Site.7   0.51       11
##  8 Birds     8 Site.8   0.74       16
##  9 Birds     9 Site.9   1          25
## 10 Birds    10 Site.10  0.76       16
## # ... with 20 more rows
…
Another example, this time nesting the data based on sites and finding whether a site has more bird or butterfly species.

get.taxa<-function(x){
  Top.taxa<-x%>%filter(Richness==max(Richness))%>%pull(Taxa)
  if(length(Top.taxa)>1){paste(Top.taxa[1], Top.taxa[2], sep=" + ")}else{Top.taxa} #Need to indicate sites where birds and butterflies have the same species richness
}

sites.richness<-data.all%>%group_by(Site)%>%nest()%>%mutate(Animal=map(data, get.taxa))%>%unnest(Animal)%>%select(-data)

sites.richness

## # A tibble: 30 x 2
## # Groups:   Site [30]
##    Site    Animal     
##    <chr>   <chr>      
##  1 Site.1  Birds      
##  2 Site.2  Birds      
##  3 Site.3  Birds      
##  4 Site.4  Birds      
##  5 Site.5  Birds      
##  6 Site.6  Butterflies
##  7 Site.7  Birds      
##  8 Site.8  Birds      
##  9 Site.9  Birds      
## 10 Site.10 Birds      
## # ... with 20 more rows
…
