Session 3 Organizing Research Projects for Reproducibility | Reproducible Research for Conservation — Mérida, Mexico
…
# this is just storing the web address of the sheet
sheet_url <- "https://docs.google.com/spreadsheets/d/1-7qG0X8M0TmyzB4Jaad6pNhV_SmcOY6T5JJk53dFU50/edit?usp=sharing"

# this tells R to not bother with Google authentication for this session
gs4_deauth()

fish_sheet <- read_sheet(sheet_url)

## ✓ Reading from "wgs-chinook-samples".

## ✓ Range 'wgs-chinook-samples'.

fish_sheet

## # A tibble: 160 × 8
##    vcf_name    ID_Berk  NMFS_DNA_ID BOX_ID BOX_POSITION
##    <chr>       <chr>    <chr>       <chr>  <chr>       
##  1 DPCh_plate… CH_Plat… T144767     T1512  1A          
##  2 DPCh_plate… CH_Plat… T144804     T1512  5F          
##  3 DPCh_plate… CH_Plat… T145109     T1515  7G          
##  4 DPCh_plate… CH_Plat… T145118     T1515  8H          
##  5 DPCh_plate… CH_Plat… T144863     T1513  1A          
##  6 DPCh_plate… CH_Plat… T144906     T1513  6D          
##  7 DPCh_plate… CH_Plat… T145128     T1515  10B         
##  8 DPCh_plate… CH_Plat… T145142     T1515  11H         
##  9 DPCh_plate… CH_Plat… T144959     T1514  1A          
## 10 DPCh_plate… CH_Plat… T144980     T1514  3F          
## # … with 150 more rows, and 3 more variables:
## #   Population <chr>, Concentration (ng/ul) <dbl>,
## #   run_type <chr>
…
download_results <- drive_download(url, overwrite = TRUE) 

## File downloaded:

## • 'RoSA-popgen-survey-data.rds'
##   <id: 1071-7teo1dIPl9cJNigTYrBGN7I0E08U>

## Saved locally as:

## • 'RoSA-popgen-survey-data.rds'

readr::read_rds(download_results$local_path[1])

## # A tibble: 3,223 × 4
##    Indiv   Population rosa     pop_name               
##    <chr>   <chr>      <chr>    <chr>                  
##  1 CH12366 IGH        LLLLLLLL Iron Gate hatchery fall
##  2 CH12367 IGH        LLLLLLLL Iron Gate hatchery fall
##  3 CH12368 IGH        LLLLLLLL Iron Gate hatchery fall
##  4 CH12369 IGH        LLLLLLLL Iron Gate hatchery fall
##  5 CH12370 IGH        LLLLLLLL Iron Gate hatchery fall
##  6 CH12371 IGH        LLLLLLLL Iron Gate hatchery fall
##  7 CH12372 IGH        LLLLLLLL Iron Gate hatchery fall
##  8 CH12373 IGH        LLLLLLLL Iron Gate hatchery fall
##  9 CH12374 IGH        LLLLLLLL Iron Gate hatchery fall
## 10 CH12375 IGH        LLLLLLLL Iron Gate hatchery fall
## # … with 3,213 more rows
…
