Session 6 Handling and Visualizing Spatial Data in R | Reproducible Research for Conservation — Mérida, Mexico
…
yuc_bioc_tib <- as.data.frame(
  yuc_bioc,
  xy = TRUE
) %>%
  as_tibble() %>%
  pivot_longer(
    cols = -c(x, y),
    names_to = "layer", 
    values_to = "value"
  )

# see what that looks like:
yuc_bioc_tib

## # A tibble: 1,718,455 × 4
##        x     y layer            value
##    <dbl> <dbl> <chr>            <dbl>
##  1 -88.1  21.6 wc2.1_30s_bio_1   25.7
##  2 -88.1  21.6 wc2.1_30s_bio_2   11.1
##  3 -88.1  21.6 wc2.1_30s_bio_3   70.6
##  4 -88.1  21.6 wc2.1_30s_bio_4  179. 
##  5 -88.1  21.6 wc2.1_30s_bio_5   33  
##  6 -88.1  21.6 wc2.1_30s_bio_6   17.3
##  7 -88.1  21.6 wc2.1_30s_bio_7   15.7
##  8 -88.1  21.6 wc2.1_30s_bio_8   27.0
##  9 -88.1  21.6 wc2.1_30s_bio_9   24.9
## 10 -88.1  21.6 wc2.1_30s_bio_10  27.5
## # … with 1,718,445 more rows
…
# and look at the first few rows:
yjay_thin

## # A tibble: 3,032 × 9
##     gbifID decimalLongitude decimalLatitude   day month
##      <dbl>            <dbl>           <dbl> <dbl> <dbl>
##  1  3.30e9            -88.2            21.6    21     5
##  2  3.30e9            -87.0            20.7    30     9
##  3  3.29e9            -88.0            21.6    20    10
##  4  3.29e9            -87.0            20.8    12    12
##  5  3.29e9            -88.2            20.8    28     7
##  6  3.29e9            -87.4            20.2    24     2
##  7  3.29e9            -88.2            21.6    21     5
##  8  3.29e9            -87.7            18.7    20    11
##  9  3.29e9            -88.5            17.8    14     4
## 10  3.28e9            -87.9            21.4     5     5
## # … with 3,022 more rows, and 4 more variables:
## #   year <dbl>, individualCount <dbl>,
## #   stateProvince <chr>, locality <chr>
…
# have a look at it:
yjay_sf

## Simple feature collection with 3032 features and 7 fields
## Geometry type: POINT
## Dimension:     XY
## Bounding box:  xmin: -92.98 ymin: 16.94 xmax: -86.79 ymax: 21.61
## Geodetic CRS:  WGS 84
## # A tibble: 3,032 × 8
##        gbifID   day month  year individualCount
##  *      <dbl> <dbl> <dbl> <dbl>           <dbl>
##  1 3297327310    21     5  2017               1
##  2 3295142622    30     9  2017               2
##  3 3291491655    20    10  2017               1
##  4 3291004959    12    12  2017               8
##  5 3289867554    28     7  2017               8
##  6 3289002522    24     2  2017              NA
##  7 3286797902    21     5  2017               2
##  8 3286393532    20    11  2017               6
##  9 3285803459    14     4  2017               2
## 10 3284777960     5     5  2017               1
## # … with 3,022 more rows, and 3 more variables:
## #   stateProvince <chr>, locality <chr>,
## #   geometry <POINT [°]>
…
The GBIF data actually tells us that information in the stateProvice column, but let’s pretend for a
moment that we don’t have that information — only where they birds were caught:

yjay_just_coord <- yjay_sf %>%
  select(gbifID, geometry)

# now, we just have the IDs and the positions of the observations
yjay_just_coord

## Simple feature collection with 3032 features and 1 field
## Geometry type: POINT
## Dimension:     XY
## Bounding box:  xmin: -92.98 ymin: 16.94 xmax: -86.79 ymax: 21.61
## Geodetic CRS:  WGS 84
## # A tibble: 3,032 × 2
##        gbifID       geometry
##         <dbl>    <POINT [°]>
##  1 3297327310 (-88.23 21.55)
##  2 3295142622 (-87.03 20.67)
##  3 3291491655 (-87.98 21.58)
##  4 3291004959 (-86.96 20.77)
##  5 3289867554 (-88.21 20.76)
##  6 3289002522 (-87.43 20.21)
##  7 3286797902 (-88.23 21.55)
##  8 3286393532 (-87.71 18.71)
##  9 3285803459 (-88.53 17.77)
## 10 3284777960 (-87.87 21.41)
## # … with 3,022 more rows
…
## Warning: attribute variables are assumed to be
## spatially constant throughout all geometries

# look at the result
jays_in_states

## Simple feature collection with 2425 features and 5 fields
## Geometry type: POINT
## Dimension:     XY
## Bounding box:  xmin: -92.98 ymin: 17.94 xmax: -86.79 ymax: 21.59
## Geodetic CRS:  WGS 84
## # A tibble: 2,425 × 6
##        gbifID name         type   type_en postal
##  *      <dbl> <chr>        <chr>  <chr>   <chr> 
##  1 3295142622 Quintana Roo Estado State   QR    
##  2 3291004959 Quintana Roo Estado State   QR    
##  3 3286393532 Quintana Roo Estado State   QR    
##  4 3282675523 Quintana Roo Estado State   QR    
##  5 3281473008 Quintana Roo Estado State   QR    
##  6 3279106041 Quintana Roo Estado State   QR    
##  7 3277142270 Quintana Roo Estado State   QR    
##  8 3275579212 Quintana Roo Estado State   QR    
##  9 3273312480 Quintana Roo Estado State   QR    
## 10 3252526920 Quintana Roo Estado State   QR    
## # … with 2,415 more rows, and 1 more variable:
## #   geometry <POINT [°]>
…
So, for example, if you wanted to retain only those observations of
jays that occurred in the state of Yucatàn, you can use a simple filter():

yuc_state_jays <- jays_in_states %>%
  filter(name == "Yucatán")

# have a look:
yuc_state_jays

## Simple feature collection with 1082 features and 5 fields
## Geometry type: POINT
## Dimension:     XY
## Bounding box:  xmin: -90.4 ymin: 19.99 xmax: -87.57 ymax: 21.59
## Geodetic CRS:  WGS 84
## # A tibble: 1,082 × 6
##        gbifID name    type   type_en postal
##  *      <dbl> <chr>   <chr>  <chr>   <chr> 
##  1 3297327310 Yucatán Estado State   YU    
##  2 3291491655 Yucatán Estado State   YU    
##  3 3289867554 Yucatán Estado State   YU    
##  4 3286797902 Yucatán Estado State   YU    
##  5 3284777960 Yucatán Estado State   YU    
##  6 3283999442 Yucatán Estado State   YU    
##  7 3243749415 Yucatán Estado State   YU    
##  8 3176970726 Yucatán Estado State   YU    
##  9 2795705902 Yucatán Estado State   YU    
## 10 2794893768 Yucatán Estado State   YU    
## # … with 1,072 more rows, and 1 more variable:
## #   geometry <POINT [°]>
…
Note that the ‘tidyr’ package also has a function called extract(), so it is wise to
always be explicit and use namespace addressing when you want ’terra’s extract() function,
i.e., call it terra::extract().

When deployed like this, extract() returns a data frame with one row for
each bird observation. We turn it into a tibble so it prints nicely:

terra::extract(yuc_bioc, vect(yuc_state_jays)) %>%
  as_tibble()

## # A tibble: 1,082 × 20
##       ID wc2.1_30s_bio_1 wc2.1_30s_bio_2
##    <dbl>           <dbl>           <dbl>
##  1     1            25.8            11.6
##  2     2           NaN             NaN  
##  3     3            25.8            14.0
##  4     4            25.8            11.6
##  5     5            25.5            13.0
##  6     6            25.8            14  
##  7     7            25.6            11.6
##  8     8            25.5            14.1
##  9     9            26.0            13.2
## 10    10            26.0            13.2
## # … with 1,072 more rows, and 17 more variables:
## #   wc2.1_30s_bio_3 <dbl>, wc2.1_30s_bio_4 <dbl>,
## #   wc2.1_30s_bio_5 <dbl>, wc2.1_30s_bio_6 <dbl>,
## #   wc2.1_30s_bio_7 <dbl>, wc2.1_30s_bio_8 <dbl>,
## #   wc2.1_30s_bio_9 <dbl>, wc2.1_30s_bio_10 <dbl>,
## #   wc2.1_30s_bio_11 <dbl>, wc2.1_30s_bio_12 <dbl>,
## #   wc2.1_30s_bio_13 <dbl>, wc2.1_30s_bio_14 <dbl>, …

If you wanted to insert those results seamlessly into the original
simple features collection, with some nice tidyverse idioms, you could do like this:

jays_and_bioc <- yuc_state_jays %>%
  bind_cols(terra::extract(yuc_bioc, vect(.)))

jays_and_bioc

## Simple feature collection with 1082 features and 25 fields
## Geometry type: POINT
## Dimension:     XY
## Bounding box:  xmin: -90.4 ymin: 19.99 xmax: -87.57 ymax: 21.59
## Geodetic CRS:  WGS 84
## # A tibble: 1,082 × 26
##        gbifID name    type   type_en postal
##  *      <dbl> <chr>   <chr>  <chr>   <chr> 
##  1 3297327310 Yucatán Estado State   YU    
##  2 3291491655 Yucatán Estado State   YU    
##  3 3289867554 Yucatán Estado State   YU    
##  4 3286797902 Yucatán Estado State   YU    
##  5 3284777960 Yucatán Estado State   YU    
##  6 3283999442 Yucatán Estado State   YU    
##  7 3243749415 Yucatán Estado State   YU    
##  8 3176970726 Yucatán Estado State   YU    
##  9 2795705902 Yucatán Estado State   YU    
## 10 2794893768 Yucatán Estado State   YU    
## # … with 1,072 more rows, and 21 more variables:
## #   geometry <POINT [°]>, ID <dbl>,
## #   wc2.1_30s_bio_1 <dbl>, wc2.1_30s_bio_2 <dbl>,
## #   wc2.1_30s_bio_3 <dbl>, wc2.1_30s_bio_4 <dbl>,
## #   wc2.1_30s_bio_5 <dbl>, wc2.1_30s_bio_6 <dbl>,
## #   wc2.1_30s_bio_7 <dbl>, wc2.1_30s_bio_8 <dbl>,
## #   wc2.1_30s_bio_9 <dbl>, wc2.1_30s_bio_10 <dbl>, …
…
